<?xml version="1.0" encoding="UTF-16"?>
<!DOCTYPE svg PUBLIC "-//W3C//DTD SVG 1.1//EN" "http://www.w3.org/Graphics/SVG/1.1/DTD/svg11.dtd">
<!-- Creator: CorelDRAW 2021 (64-Bit) -->
<svg xmlns="http://www.w3.org/2000/svg" xml:space="preserve" width="51px" height="64px" version="1.1" style="shape-rendering:geometricPrecision; text-rendering:geometricPrecision; image-rendering:optimizeQuality; fill-rule:evenodd; clip-rule:evenodd"
viewBox="0 0 6.24 7.79"
 xmlns:xlink="http://www.w3.org/1999/xlink"
 xmlns:xodm="http://www.corel.com/coreldraw/odm/2003">
 <defs>
  <style type="text/css">
   <![CDATA[
    .fil1 {fill:#2B2A29;fill-rule:nonzero}
    .fil0 {fill:#FAA947;fill-opacity:0.901961}
   ]]>
  </style>
 </defs>
 <g id="Слой_x0020_1">
  <metadata id="CorelCorpID_0Corel-Layer"/>
  <path class="fil0" d="M4.05 6.04c0.76,-0.35 1.1,-0.72 1.68,-1.15 0.08,-0.05 0.21,-0.16 0.32,-0.17 0.14,-0.03 0.16,0.09 0.19,0.23 0.01,0.37 -0.26,1.04 -0.47,1.35 -0.24,0.36 -0.73,0.93 -1.18,1.09 -0.25,0.2 -0.87,0.35 -1.16,0.38 -0.35,0.03 -0.71,0.02 -1.03,-0.06 -0.31,-0.06 -0.63,-0.18 -0.91,-0.34 -0.49,-0.28 -0.96,-0.74 -1.22,-1.25 -0.19,-0.36 -0.49,-1.04 0,-1.3 0.18,-0.1 0.43,-0.08 0.6,0.02 0.13,0.07 0.29,0.17 0.4,0.28 0.36,0.33 0.46,0.57 1.01,0.88 0.46,0.25 1.07,0.34 1.77,0.04z"/>
  <path class="fil1" d="M4.99 3.44c0,0.14 0,0.25 0.01,0.35 0,0.1 0.01,0.21 0.02,0.32l0.64 0.09 0 0.33c-0.08,0.04 -0.18,0.07 -0.31,0.11 -0.12,0.04 -0.25,0.07 -0.39,0.11 -0.14,0.03 -0.28,0.06 -0.42,0.08 -0.14,0.02 -0.26,0.04 -0.36,0.05l-0.32 0c-0.04,-0.07 -0.06,-0.15 -0.08,-0.22 -0.02,-0.07 -0.03,-0.14 -0.04,-0.21 0,-0.07 -0.01,-0.15 -0.01,-0.24 -0.01,-0.08 -0.01,-0.18 -0.01,-0.28l-0.05 0c-0.03,0.12 -0.08,0.24 -0.16,0.35 -0.07,0.12 -0.17,0.23 -0.28,0.32 -0.12,0.09 -0.25,0.16 -0.41,0.22 -0.16,0.05 -0.33,0.08 -0.52,0.08 -0.2,0 -0.39,-0.03 -0.56,-0.09 -0.17,-0.06 -0.32,-0.15 -0.45,-0.27 -0.13,-0.11 -0.23,-0.24 -0.3,-0.4 -0.07,-0.16 -0.1,-0.34 -0.1,-0.54 0,-0.28 0.06,-0.51 0.17,-0.69 0.13,-0.19 0.3,-0.34 0.54,-0.45 0.24,-0.12 0.53,-0.2 0.88,-0.26 0.34,-0.06 0.75,-0.09 1.21,-0.11 0.05,-0.54 0.03,-0.93 -0.07,-1.18 -0.09,-0.25 -0.29,-0.38 -0.61,-0.38 -0.19,0 -0.37,0.03 -0.52,0.1l-0.44 1.12 -0.42 0c-0.04,-0.08 -0.09,-0.16 -0.14,-0.26 -0.05,-0.1 -0.09,-0.2 -0.13,-0.3 -0.04,-0.11 -0.07,-0.22 -0.1,-0.33 -0.03,-0.12 -0.05,-0.23 -0.06,-0.33 0.22,-0.16 0.53,-0.29 0.91,-0.38 0.38,-0.1 0.78,-0.15 1.19,-0.15 0.35,0 0.64,0.04 0.86,0.12 0.23,0.08 0.41,0.18 0.54,0.32 0.13,0.13 0.22,0.29 0.26,0.47 0.05,0.18 0.08,0.37 0.08,0.58 0,0.19 -0.01,0.37 -0.01,0.53 -0.01,0.17 -0.01,0.33 -0.02,0.49 0,0.15 -0.01,0.31 -0.01,0.46 -0.01,0.15 -0.01,0.31 -0.01,0.47zm-2.1 0.71c0.13,0 0.24,-0.02 0.33,-0.07 0.1,-0.05 0.18,-0.11 0.24,-0.18 0.06,-0.07 0.11,-0.15 0.15,-0.23 0.03,-0.08 0.06,-0.15 0.08,-0.21l0 -0.93c-0.5,0 -0.86,0.06 -1.07,0.2 -0.22,0.14 -0.33,0.36 -0.33,0.67 0,0.24 0.05,0.43 0.15,0.56 0.11,0.13 0.25,0.19 0.45,0.19z"/>
 </g>
</svg>
