<svg width="12" height="10" viewBox="0 0 12 10" fill="none" xmlns="http://www.w3.org/2000/svg">
<line x1="0.70598" y1="4.29177" x2="3.71856" y2="7.29477" stroke="white" stroke-width="2"/>
<line x1="10.7533" y1="0.657708" x2="3.76546" y2="8.66086" stroke="white" stroke-width="2"/>
</svg>
