<svg width="29" height="29" viewBox="0 0 29 29" fill="none" xmlns="http://www.w3.org/2000/svg">
<path fill-rule="evenodd" clip-rule="evenodd" d="M6.32715 14.3025V27.7671C6.32715 28.0352 7.43663 28.307 7.73754 28.3901C8.17356 28.5109 9.00465 28.6676 9.52049 28.6676H22.8834C23.9192 28.6676 24.9468 27.9333 25.3562 27.3424C25.6756 26.8856 25.7431 26.6648 25.8475 25.989C25.9499 25.3207 25.5793 24.7299 25.5548 24.4619C26.5414 24.2486 27.8781 22.3345 26.9242 20.6733C27.4646 20.3392 27.6284 20.2637 28.0419 19.7824C28.3817 19.386 28.5721 18.897 28.6192 18.3893V17.8872C28.5741 17.3907 28.3981 16.8961 28.0951 16.4695C27.9825 16.3072 27.8863 16.2638 27.7717 16.1052C27.8188 15.941 27.9355 15.8466 28.046 15.6975C28.3919 15.235 28.5762 14.7197 28.6192 14.2006V13.7268C28.5127 12.4356 27.5486 11.2162 26.001 10.8273C25.0021 10.5763 17.8539 10.6971 16.4292 10.6971C16.7895 9.27756 16.9921 9.23414 17.3606 7.16716C17.639 5.61928 17.5673 4.66602 16.9901 3.38807C16.4251 2.14033 14.6135 0.218701 13.0127 0.448995C12.2041 0.56603 11.7681 0.667963 11.1868 0.99264C10.4232 1.41925 10.499 1.50231 10.499 2.58205L10.5031 5.89111C10.4928 6.25542 10.0179 7.13885 9.8255 7.49184L6.51138 14.0514C6.50319 14.0628 6.48886 14.0741 6.48067 14.0854C6.47249 14.0949 6.4602 14.1062 6.45202 14.1175C6.37832 14.2062 6.32715 14.1288 6.32715 14.3025Z" fill="#C4C4C4"/>
<path fill-rule="evenodd" clip-rule="evenodd" d="M0.626465 16.3682V25.3893C0.626465 26.4672 1.64997 27.428 2.89865 27.7772C4.01223 28.0906 6.59761 27.9735 7.99163 27.9735C8.64054 27.9735 9.37951 27.8659 9.90354 27.6356C10.1021 27.5488 10.1819 27.462 10.403 27.4148V13.886H3.81981C2.68986 13.886 1.46165 14.6108 0.972411 15.3715C0.827072 15.5999 0.626465 16.0549 0.626465 16.3682Z" fill="#C4C4C4"/>
</svg>
