<svg width="47" height="41" viewBox="0 0 47 41" fill="none" xmlns="http://www.w3.org/2000/svg">
<path fill-rule="evenodd" clip-rule="evenodd" d="M44.3426 36.1643C43.9879 36.495 43.7582 36.3297 42.6449 36.3204C42.5551 37.3404 42.8019 37.7646 42.4258 38.0738C42.1758 38.6603 41.5316 39.1235 40.8275 38.5175C40.242 38.0142 40.5166 36.9891 40.4289 36.2485C39.3947 36.2372 37.8423 36.531 37.8487 35.2542C37.8562 33.9949 39.4214 34.3164 40.4428 34.2753C40.5283 33.2574 40.1426 31.7732 41.4771 31.7773C42.7731 31.7804 42.4654 33.2307 42.5263 34.2301C43.2795 34.3565 44.3704 34.0668 44.8811 34.6143C45.5222 35.3004 45.0253 35.9691 44.3426 36.1643ZM36.0185 35.7226C36.246 38.5072 38.7162 40.731 41.9397 40.5215C44.8576 40.3304 47.1483 37.8817 46.9635 34.792C46.8011 32.0752 44.1065 29.7805 40.9909 30.0168C38.1532 30.2314 35.7652 32.6401 36.0185 35.7226Z" fill="#1E7CF2"/>
<path fill-rule="evenodd" clip-rule="evenodd" d="M42.4258 38.0738L42.4718 36.2506L44.3426 36.1643C45.0253 35.9692 45.5221 35.3005 44.8811 34.6144C44.3704 34.0669 43.2795 34.3565 42.5262 34.2302C42.4653 33.2308 42.7731 31.7804 41.477 31.7774C40.1426 31.7732 40.5283 33.2575 40.4428 34.2754C39.4214 34.3165 37.8561 33.995 37.8487 35.2543C37.8422 36.531 39.3947 36.2373 40.4289 36.2486C40.5165 36.9891 40.2419 38.0142 40.8274 38.5175C41.5315 39.1236 42.1758 38.6603 42.4258 38.0738Z" fill="#FCFDFE"/>
<path d="M30 0.5H5C2.51472 0.5 0.5 2.51472 0.5 5V30C0.5 32.4853 2.51472 34.5 5 34.5H30C32.4853 34.5 34.5 32.4853 34.5 30V5C34.5 2.51472 32.4853 0.5 30 0.5Z" stroke="black"/>
<path d="M27 4.5H7C5.61929 4.5 4.5 5.61929 4.5 7V17C4.5 18.3807 5.61929 19.5 7 19.5H27C28.3807 19.5 29.5 18.3807 29.5 17V7C29.5 5.61929 28.3807 4.5 27 4.5Z" stroke="black"/>
<path d="M5.5 26.5H28.5" stroke="black" stroke-linecap="round"/>
<path d="M7 22H5V24H7V22Z" fill="black"/>
<path d="M12 22H10V24H12V22Z" fill="black"/>
<path d="M17 22H15V24H17V22Z" fill="black"/>
<path d="M29 22H27V24H29V22Z" fill="black"/>
<path d="M5.5 30.5H28.5" stroke="black" stroke-linecap="round"/>
</svg>
