<svg width="52" height="41" viewBox="0 0 52 41" fill="none" xmlns="http://www.w3.org/2000/svg">
<path fill-rule="evenodd" clip-rule="evenodd" d="M17.1647 15.4949L17.2935 15.5849C18.1057 16.7735 18.8766 17.8693 19.7994 18.8924C20.255 19.3975 20.737 19.9635 21.2306 20.4032C21.607 20.737 22.4671 21.5251 22.7295 21.8516C23.1059 22.0563 23.3635 22.3349 23.6986 22.6078C27.4756 28.0037 43.8234 8.22098 24.831 0.137207C23.9842 0.15172 22.6322 0.547927 21.9504 0.772879C18.9063 1.78444 16.1214 4.69866 15.537 7.72463C15.1739 9.60553 15.405 11.3979 16.0934 13.2222L17.1647 15.4949Z" fill="#E7343F"/>
<path fill-rule="evenodd" clip-rule="evenodd" d="M26.0014 25.6061L25.9965 33.4432C25.9981 33.6115 26.0097 33.8205 26.0031 33.9831L25.9041 34.4475L26.0014 34.6042C26.4719 34.9032 26.7674 35.327 27.2049 35.6884L28.4793 36.7986C28.8953 37.1919 29.2403 37.5156 29.6563 37.9074C30.2093 38.4299 30.7145 38.7216 30.8861 39.067L38.6647 36.0323C38.7538 34.9903 38.0341 28.8875 37.8806 26.8339L37.8822 26.4014C37.8872 26.3782 37.8987 26.3521 37.9037 26.3318L37.9631 26.2026L37.7914 25.9457C37.5042 25.8369 33.501 23.0809 33.3623 22.8893C32.4362 23.0591 30.6204 23.8979 29.658 24.2463C28.5123 24.6613 27.1719 25.2955 26.0014 25.6061Z" fill="#4CE066"/>
<path fill-rule="evenodd" clip-rule="evenodd" d="M2.03048 30.304L0.110603 39.4313C0.064381 39.6228 0.0165079 39.8304 0 40.0307V40.2745C0.0214603 40.5009 0.113905 40.6997 0.338413 40.8289C0.835302 41.1119 1.83238 40.6054 2.6066 40.2875C6.08483 38.8638 9.92953 37.472 13.3219 36.0323L14.3074 24.6889L14.3107 24.6439L2.03048 30.304Z" fill="#A8EEFB"/>
<path fill-rule="evenodd" clip-rule="evenodd" d="M14.3107 24.6439L14.3074 24.6889C14.8769 25.2056 15.3474 25.9849 15.8046 26.6017L20.1528 32.4229C21.8647 34.5781 24.3871 38.2702 25.9768 40.1468L26.0016 34.6042L25.9042 34.4475C25.3842 33.5506 21.0278 27.7105 19.9448 26.178C19.6873 25.8137 19.2581 25.297 19.0996 24.9313L26.0016 25.6323V24.21C25.5179 24.0982 24.8791 23.6077 24.676 23.3639C24.3822 23.2071 23.9563 22.8196 23.6987 22.6077C23.3636 22.3349 23.1061 22.0562 22.7297 21.8516L14.6639 20.8749L14.5748 20.8981C14.697 21.2812 14.3866 23.9067 14.3107 24.6439Z" fill="#FDBB25"/>
<path fill-rule="evenodd" clip-rule="evenodd" d="M37.6118 21.1768C37.4814 21.3088 37.5226 21.2363 37.4583 21.4467C37.8033 21.6397 40.0252 24.001 40.4264 24.4233L50.9848 35.1107L48.0167 20.6935C47.8566 20.0027 47.434 19.5861 46.6086 19.4236C46.3049 19.5847 38.1285 21.1898 37.6118 21.1768Z" fill="#1EA4E8"/>
<path fill-rule="evenodd" clip-rule="evenodd" d="M13.3218 36.0323C13.7774 36.1324 14.3964 36.4459 14.8719 36.6186C16.5507 37.2325 25.2108 40.7838 26.0065 40.942L25.9768 40.1467C24.3871 38.2702 21.8646 34.578 20.1528 32.4229L15.8046 26.6017C15.3473 25.9849 14.8768 25.2055 14.3073 24.6888L13.3218 36.0323Z" fill="#1EA4E8"/>
<path fill-rule="evenodd" clip-rule="evenodd" d="M2.84448 26.3042L14.575 20.898L14.6642 20.8748L15.2007 14.6908C14.6097 14.7837 12.7129 15.7952 12.0823 16.116C11.8974 16.2089 11.7538 16.2582 11.5458 16.3598C11.2982 16.4803 11.2965 16.5049 11.0374 16.6254L7.96524 18.1231C7.58886 18.3191 7.28677 18.4453 6.92689 18.6369C6.58683 18.8183 6.30454 18.9315 5.94962 19.1187C5.01858 19.6064 4.28728 19.7471 4.07762 20.3306C3.96042 20.6557 3.89934 21.1448 3.8168 21.5294C3.64016 22.358 3.49159 23.0663 3.33807 23.8761C3.20105 24.5989 2.91216 25.5712 2.84448 26.3042Z" fill="#4CE066"/>
<path fill-rule="evenodd" clip-rule="evenodd" d="M24.8314 0.137141C35.5088 4.57669 34.3549 18.3568 24.6763 23.3638C24.8793 23.6077 25.5182 24.0982 26.0019 24.21C26.8173 24.1214 29.1945 22.0344 29.8267 21.4496C30.2246 21.0809 30.5646 20.6484 30.9806 20.3117C32.2419 19.3336 34.7857 15.6095 34.9376 15.4949L36.0684 13.0959C36.1988 12.7548 36.382 12.1452 36.4728 11.7548C37.0869 9.13089 36.6528 6.56062 35.2232 4.61877C34.9591 4.25885 34.7098 3.93811 34.4325 3.61737C33.9422 3.05136 33.1118 2.3649 32.473 1.94692C30.6257 0.743787 28.998 0.279369 26.6968 0.060222C25.9226 -0.0137946 25.4142 0.137141 24.8314 0.137141Z" fill="#E7343F"/>
<path fill-rule="evenodd" clip-rule="evenodd" d="M38.665 36.0323C40.8176 36.8814 42.9653 37.7028 45.1278 38.591L50.8247 40.8231C51.2754 40.9784 51.32 40.974 51.7228 40.7636L49.9696 38.8885C49.3852 38.3022 48.8669 37.71 48.266 37.0831L37.9634 26.2026L37.904 26.3318C37.899 26.3521 37.8875 26.3782 37.8825 26.4015L37.8809 26.834C38.0344 28.8876 38.7541 34.9903 38.665 36.0323Z" fill="#44C868"/>
<path fill-rule="evenodd" clip-rule="evenodd" d="M37.7916 25.9457L37.9632 26.2026L48.2658 37.083C48.8667 37.71 49.3851 38.3021 49.9694 38.8885L51.7226 40.7635C51.886 40.6358 51.9669 40.4936 51.9999 40.3369V39.9377C51.9768 39.7796 51.9322 39.6098 51.891 39.4312C51.7837 38.9813 51.6813 38.4632 51.5938 37.9959C51.4155 37.0438 51.1993 36.0439 50.9847 35.1107L40.4262 24.4233C40.0251 24.001 37.8031 21.6397 37.4581 21.4467C37.326 22.4292 37.714 24.7963 37.7916 25.9457Z" fill="#FDBB25"/>
<path fill-rule="evenodd" clip-rule="evenodd" d="M2.84436 26.3042C2.67763 26.9152 2.54887 27.5915 2.42341 28.2518C2.36233 28.5798 2.29134 28.8599 2.22036 29.2329C2.15598 29.5769 2.03052 29.9005 2.03052 30.304L14.3108 24.6439C14.3867 23.9066 14.6971 21.2812 14.5749 20.8981L2.84436 26.3042Z" fill="#FEDB56"/>
<path fill-rule="evenodd" clip-rule="evenodd" d="M30.9805 20.3116C30.5645 20.6483 30.2244 21.0808 29.8266 21.4495C29.1943 22.0343 26.8172 24.1213 26.0017 24.2098V25.6321V25.606C27.1721 25.2954 28.5126 24.6612 29.6582 24.2461C30.6206 23.8978 32.4365 23.059 33.3626 22.8892C33.5013 23.0807 37.5044 25.8368 37.7917 25.9456C37.7141 24.7962 37.3261 22.4291 37.4582 21.4466C37.5226 21.2361 37.4813 21.3087 37.6117 21.1766C37.341 21.2027 37.5242 21.1998 37.3872 21.12L37.1181 17.9954L37.1016 18.0244C36.0831 18.3669 35.0778 18.8008 34.0493 19.1796C33.2619 19.4713 31.6986 20.1926 30.9805 20.3116Z" fill="#FEDB56"/>
<path fill-rule="evenodd" clip-rule="evenodd" d="M25.9042 34.4475L26.0032 33.9831C26.0098 33.8205 25.9983 33.6115 25.9966 33.4432L26.0016 25.6061V25.6323L19.0996 24.9313C19.2581 25.297 19.6873 25.8137 19.9448 26.1779C21.0277 27.7105 25.3842 33.5506 25.9042 34.4475Z" fill="#44C868"/>
<path fill-rule="evenodd" clip-rule="evenodd" d="M14.6641 20.8748L22.7298 21.8515C22.4674 21.525 21.6073 20.7369 21.2309 20.4031C20.7373 19.9634 20.2553 19.3974 19.7997 18.8923C18.8769 17.8692 18.106 16.7734 17.2938 15.5848C17.132 15.5848 17.165 15.624 17.165 15.4948L15.2006 14.6908L14.6641 20.8748Z" fill="#44C868"/>
<path fill-rule="evenodd" clip-rule="evenodd" d="M37.1179 17.9955L37.387 21.1201C37.524 21.2 37.3408 21.2029 37.6115 21.1767C38.1282 21.1898 46.3046 19.5847 46.6083 19.4236L41.6758 17.0129C41.0996 17.3003 38.0093 17.8445 37.1179 17.9955Z" fill="#FDBB25"/>
<path fill-rule="evenodd" clip-rule="evenodd" d="M25.9766 40.1468L26.0063 40.9421C26.4602 40.8463 26.8102 40.6867 27.2477 40.5227C27.6637 40.3659 28.0252 40.2106 28.4362 40.0481C29.2352 39.7332 30.1068 39.4095 30.886 39.067C30.7143 38.7216 30.2092 38.4299 29.6562 37.9074C29.2402 37.5156 28.8952 37.1919 28.4792 36.7986L27.2048 35.6884C26.7673 35.327 26.4718 34.9032 26.0013 34.6042L25.9766 40.1468Z" fill="#FEDB56"/>
<path fill-rule="evenodd" clip-rule="evenodd" d="M34.9374 15.4948C34.7856 15.6094 32.2417 19.3335 30.9805 20.3117C31.6986 20.1926 33.2619 19.4713 34.0493 19.1796C35.0777 18.8008 36.0831 18.3669 37.1016 18.0244C37.0521 17.3176 37.0125 15.2335 36.7665 14.7633C36.3158 14.8286 35.3303 15.3134 34.9374 15.4948Z" fill="#4CE066"/>
<path fill-rule="evenodd" clip-rule="evenodd" d="M37.1015 18.0245L37.118 17.9954C38.0094 17.8445 41.0997 17.3003 41.6758 17.0129C41.4332 16.7923 39.2525 15.7851 38.6912 15.4992C38.2042 15.2525 37.0817 14.627 36.7664 14.7634C37.0123 15.2336 37.0519 17.3177 37.1015 18.0245Z" fill="#44C868"/>
<path fill-rule="evenodd" clip-rule="evenodd" d="M26.1303 14.7504L25.4799 16.4934C25.3528 16.7242 24.9681 16.7227 24.7997 16.521C24.7387 16.4484 24.6941 16.2961 24.6578 16.1959L23.0383 12.0902C22.9426 11.8463 22.8766 11.6257 22.7709 11.3935C22.4787 10.7419 21.9967 9.40379 21.6963 8.67379L20.8907 6.61583C20.7503 6.2443 20.3954 5.70441 20.9121 5.53025C21.1763 5.44172 22.0776 5.76392 22.3434 5.8539C23.1985 6.14561 25.257 6.73774 26.1303 6.99317L31.8255 8.70571C32.1441 8.80005 32.4479 8.89874 32.7764 8.99452C32.9761 9.05403 33.5275 9.14546 33.3657 9.53441C33.2617 9.78258 32.9051 9.83919 32.5321 9.93062C32.3802 9.9669 32.2333 10.0148 32.0632 10.0641C31.8833 10.1164 31.7413 10.1469 31.5597 10.2006C30.2688 10.5779 29.0076 10.9175 27.7117 11.2861C27.3073 11.3993 27.3832 11.4095 27.1901 11.9204C26.5876 13.5603 26.7642 13.0916 26.1303 14.7504Z" fill="#FEFEFE"/>
</svg>
