<svg width="20" height="20" viewBox="0 0 20 20" fill="none" xmlns="http://www.w3.org/2000/svg">
<circle cx="10" cy="10" r="9.5" stroke="black"/>
<circle cx="6" cy="9" r="1" fill="black"/>
<circle cx="14" cy="9" r="1" fill="black"/>
<path d="M6 13L6.46447 13.4645C8.41709 15.4171 11.5829 15.4171 13.5355 13.4645L14 13" stroke="black" stroke-linecap="round"/>
</svg>
