<svg width="50" height="50" viewBox="0 0 50 50" fill="none" xmlns="http://www.w3.org/2000/svg">
<path d="M5.14001 14.4803L10.06 14.4203C11.56 14.4003 12.92 15.2603 13.54 16.6003L20.3 30.9603C20.92 32.3003 22.28 33.1403 23.74 33.1403H35.58C37.04 33.1403 38.36 32.3003 39 31.0003L44.84 18.9403" stroke="#707070" stroke-width="3" stroke-miterlimit="10" stroke-linecap="round" stroke-linejoin="round"/>
<path d="M21.6799 42.72C23.2705 42.72 24.5599 41.4305 24.5599 39.84C24.5599 38.2494 23.2705 36.96 21.6799 36.96C20.0893 36.96 18.7999 38.2494 18.7999 39.84C18.7999 41.4305 20.0893 42.72 21.6799 42.72Z" fill="#707070"/>
<path d="M36.6599 42.72C38.2505 42.72 39.5399 41.4305 39.5399 39.84C39.5399 38.2494 38.2505 36.96 36.6599 36.96C35.0693 36.96 33.7799 38.2494 33.7799 39.84C33.7799 41.4305 35.0693 42.72 36.6599 42.72Z" fill="#707070"/>
<path d="M32.8322 16.0029C32.8322 17.7725 32.4659 19.126 31.7335 20.0635C31.0011 21.001 29.9288 21.4697 28.5167 21.4697C27.1222 21.4697 26.0558 21.0098 25.3175 20.0898C24.5792 19.1699 24.2013 17.8516 24.1837 16.1348V13.7793C24.1837 11.9922 24.5529 10.6357 25.2911 9.70996C26.0353 8.78418 27.1046 8.32129 28.4991 8.32129C29.8937 8.32129 30.9601 8.78125 31.6984 9.70117C32.4366 10.6152 32.8146 11.9307 32.8322 13.6475V16.0029ZM30.2921 13.4189C30.2921 12.3584 30.1456 11.5879 29.8527 11.1074C29.5656 10.6211 29.1144 10.3779 28.4991 10.3779C27.9015 10.3779 27.4591 10.6094 27.172 11.0723C26.8907 11.5293 26.7413 12.2471 26.7238 13.2256V16.3369C26.7238 17.3799 26.8644 18.1562 27.1456 18.666C27.4327 19.1699 27.8898 19.4219 28.5167 19.4219C29.1378 19.4219 29.5861 19.1787 29.8615 18.6924C30.1368 18.2061 30.2804 17.4619 30.2921 16.46V13.4189Z" fill="#F8961D"/>
</svg>
