<?xml version="1.0" encoding="UTF-16"?>
<!DOCTYPE svg PUBLIC "-//W3C//DTD SVG 1.1//EN" "http://www.w3.org/Graphics/SVG/1.1/DTD/svg11.dtd">
<!-- Creator: CorelDRAW 2021 (64-Bit) -->
<svg xmlns="http://www.w3.org/2000/svg" xml:space="preserve" width="133px" height="93px" version="1.1" style="shape-rendering:geometricPrecision; text-rendering:geometricPrecision; image-rendering:optimizeQuality; fill-rule:evenodd; clip-rule:evenodd"
viewBox="0 0 80.84 56.41"
 xmlns:xlink="http://www.w3.org/1999/xlink"
 xmlns:xodm="http://www.corel.com/coreldraw/odm/2003">
 <defs>
  <style type="text/css">
   <![CDATA[
    .str0 {stroke:#707070;stroke-width:5.68;stroke-linecap:round;stroke-linejoin:round;stroke-miterlimit:22.9256}
    .fil0 {fill:none}
    .fil1 {fill:#707070;fill-rule:nonzero}
   ]]>
  </style>
 </defs>
 <g id="Слой_x0020_1">
  <metadata id="CorelCorpID_0Corel-Layer"/>
  <path class="fil0 str0" d="M2.84 2.95l9.31 -0.11c2.84,-0.04 5.42,1.59 6.59,4.13l12.8 27.18c1.17,2.54 3.75,4.13 6.51,4.13l22.42 0c2.76,0 5.26,-1.59 6.47,-4.05l11.06 -22.83"/>
  <path class="fil1" d="M34.15 56.41c3.01,0 5.45,-2.44 5.45,-5.45 0,-3.01 -2.44,-5.45 -5.45,-5.45 -3.01,0 -5.45,2.44 -5.45,5.45 0,3.01 2.44,5.45 5.45,5.45z"/>
  <path class="fil1" d="M62.51 56.41c3.01,0 5.45,-2.44 5.45,-5.45 0,-3.01 -2.44,-5.45 -5.45,-5.45 -3.01,0 -5.45,2.44 -5.45,5.45 0,3.01 2.44,5.45 5.45,5.45z"/>
 </g>
</svg>
