<svg width="28" height="21" viewBox="0 0 28 21" fill="none" xmlns="http://www.w3.org/2000/svg">
<path d="M2 2.0548L5.09824 2.00031C6.04282 1.98215 6.89924 2.76312 7.28967 3.97998L11.5466 17.0203C11.937 18.2372 12.7935 19 13.7128 19H21.1688C22.0882 19 22.9194 18.2372 23.3224 17.0567L26.5 9" stroke="black" stroke-width="2.5" stroke-miterlimit="10" stroke-linecap="round" stroke-linejoin="round"/>
</svg>
